<no title> — Challenges, Skills, and Tools
…
What is the value of dx_pre?

  print(injury)

Show code cell output
Hide code cell output

# A tibble: 100,477 × 11
   dx1      dx2      dx3      dx4      dx5   dx6   dx7   dx8   dx9   dx10   died
   <chr>    <chr>    <chr>    <chr>    <chr> <chr> <chr> <chr> <chr> <chr> <int>
 1 S72.342A NA       NA       NA       NA    NA    NA    NA    NA    NA        0
 2 S05.22XA NA       NA       NA       NA    NA    NA    NA    NA    NA        0
 3 S00.01XA S00.03XA S00.11XA S00.12XA S00.… S00.… S00.… S01.… S02.… S80.…     0
 4 S21.119A NA       NA       NA       NA    NA    NA    NA    NA    NA        0
 5 S82.191A NA       NA       NA       NA    NA    NA    NA    NA    NA        0
 6 S22.42XA NA       NA       NA       NA    NA    NA    NA    NA    NA        0
 7 S92.052A S92.065A S92.325A S92.335A S92.… S93.… NA    NA    NA    NA        0
 8 S02.112A S06.5X0A S12.090A S12.100A S12.… S20.… S20.… S22.… S22.… S22.…     0
 9 S00.03XA S22.058A S22.068A S22.078A S22.… S30.… S42.… S62.… S81.… S82.…     0
10 S61.411A S62.624B S62.626B S66.300A S66.… S66.… S66.… NA    NA    NA        0
# ℹ 100,467 more rows
…
